{
	"name": "SLight",
	"version": "1.0",
	"author": "[https://www.wikiskripta.eu/w/User:Josmart Josef Martiňák]",
	"url": "https://bitbucket.org/wikiskripta/slight",
	"description": "Extension allows inserting Silverlight content",
	"type": "parserhook",
	"license-name": "MIT",
	"status": "stable",
	"requires": {
		"MediaWiki": ">= 1.29.0"
	},
	"AutoloadClasses": {
		"SLightHooks": "SLightHooks.php"
	},
	"Hooks": {
		"ParserFirstCallInit": "SLightHooks::registerParserHook"
	},
	"manifest_version": 2
}
